<svg xmlns="http://www.w3.org/2000/svg" height="16px" viewBox="0 0 16 16" width="16px">
<g>
	<path d="M10.9,15.7v-4.6c0-0.1,0.1-0.3,0.3-0.3h4.6C15.9,10.9,10.9,15.9,10.9,15.7z"/>
	<g>
		<path d="M15.7,2.1c0-1-0.8-1.8-1.8-1.8H2.1c-1,0-1.8,0.8-1.8,1.8v11.9c0,1,0.8,1.8,1.8,1.8h7.8l0-5.5c0-0.1,0-0.2,0.1-0.2v0h0
			c0.1-0.1,0.1-0.1,0.2-0.1h5.5"/>
	</g>
</g>
</svg>
